CÓDIGO,NOME,MOVIMENTAÇÃO (DATA),MOVIMENTAÇÃO (NOME),AUDIÊNCIA (DATA),AUDIÊNCIA(STATUS)
RTSum 0000105-19.2018.5.20.0016 - Aviso Prévio,GABRIEL JOSE LIMA SANTOS X IZADORA MARMORES E GRANITOS LTDA - ME,2018-08-02 13:32:00,Alvará,2018-06-27 09:05:00,realizada
RTOrd 0000102-59.2016.5.20.0008 - Horas Extras,TIAGO GOMES COUTINHO DOS SANTOS X MDA INSTALACOES LTDA - EPP e outros,2016-05-11 11:56:00,Decisão de prevenção,2017-03-29 09:00:00,cancelada
RTOrd 0000003-15.2013.5.20.0002 - Horas Extras,JANSSEN HEVERTON CABRAL X CLUBE DOS EMPREGADOS DA PETROBRAS CEPE,2015-09-03 14:07:00,Sentença,2013-04-11 08:30:00,realizada
RTOrd 0000003-29.2015.5.20.0007 - Contratuais,ELIAS SANTOS JUNIOR X REDE DE POSTOS PRESIDENTE LTDA,2015-04-24 13:52:00,Ata da Audiência,2015-04-24 08:20:00,realizada
